14.07.2014 13:07:43/146647533   Система анализа цен и управления закупками
ЗАКАЗ ФИРМЕ Альба Украина ЧАО тел.:80612 173641 80674685191 Антон
ТОВ «МЕНГО»   г.Днепропетровск Аптека №01 ул.Пастера, 2 (ОптТорг) 

Код                     Наименование                             Цена	   Кол-во	  Сумма     Изготовитель	    Текстовый код 
-------------------------------------------------------------------------------------------------------------------------- 

79251                   Торвакард табл. 40мг N30                 153.00       1       153       Зентива АО Чеська   79251                 

-------------------------------------------- 
Заказ на сумму 153 грн. 
Примечание: 
