1001;Пача Елена;Lexa_p2006@mail.ru;27.02.2014 17:01:48;Донецк Университетская 63 кв 15;;0953325049;г.Донецк Аптека №03 ул. Октября, 20-А;;
Смарт Омега д детей капс.№30 ;126513 ;Дельта Медикал ;56.24 ;1 ; 56.24;;;
Стоматидин р-р д полоск.ротов.полости фл. 200мл ;28934 ;Босналек ;33.01 ;1 ; 33.01;;;
