1105;Гурин Ю.В;yulenka.gyrin@mail.ru;20.03.2014 14:22:23;Г.Винница;;0976808072;г.Винница Аптека 19, ул.Зодчих, 28-А;;
Лизак табл. 0.25 10мг шоколад №10 ;122125 ;Фармак ;16.35 ;1 ; 16.35;;;
Гино-Тардиферон др. N30 ;29397 ;Робофарм ;60.16 ;1 ; 60.16;;;
Аква Марис спрей д горла фл.30мл ндс ;237229 ;Ядран ;52.73 ;1 ; 52.73;;;
Траумель С мазь 50г ;10183 ;Хеель ;75.77 ;1 ; 75.77;;;
Коэнзим Q10 ультра капс.60мг N30 ;35795 ;Хелсивей Прод. ;95.62 ;1 ; 95.62;;;
Элевит Пронаталь табл. N100 ;66926 ;Хоффман Ля Рош Лтд ;237.79 ;1 ; 237.79;;;
