1204;Аптека35;chmyrenko@inbox.ru;28.03.2014 14:28:42;Донецк;;0937507867; г.Донецк Аптека 35 ул.Кирова, 99-Б;;
Зинацеф пор. д п ин. р-ра 1500мг фл. N1 ;7748 ;ГлаксоСмитКляйн ;42.43 ;15 ; 636.45;;;
Орзол р-р 500мл 100мл фл №1 ;134423 ;Алкон ;61.93 ;6 ; 371.58;;;
Инфулган р-р инф 10мг мл 100мл ;166139 ;Юрия-Фарм ;20.87 ;12 ; 250.44;;;
Контролок пор. д п ин. р-ра  40мг фл. N1 ;99779 ;Никомед ;87.54 ;3 ; 262.62;;;
