1250;менго4;chmyrenko@inbox.ru;01.04.2014 16:14:16;Днепр;;0937507867;г.Харьков Аптека 04 Салтовское шоссе, 262-А;;
Лира р-р д ин.1000мг 4мл 4 мл N 5 ;246618 ;Фармак Б ;184.82 ;4 ; 739.28;;;
Берлитион капс.600 мг N30 ;93841 ;БЕРЛІН-ХЕМІ (Німеччина) ;249.65 ;1 ; 249.65;;;
Микардис табл.80мг N28 ;39940 ;Берингер Ингельхайм ;326.05 ;2 ; 652.1;;;
МСМ флекс капс №60 ;161833 ;Фармекс Груп Борисполь ;74.37 ;10 ; 743.7;;;
Хондромакс Комплекс табл. №60 ;167732 ;Фармекс Груп Борисполь ;125.29 ;13 ; 1628.77;;;
Гиамакс форте капс. N 60 ;122924 ;ФАРМЕКС ГРУП, ТОВ, Україна ;123.90 ;6 ; 743.4;;;
Гиамакс С капс. N60 ;160980 ;Фармекс Груп Борисполь ;107.43 ;5 ; 537.15;;;
Клион-Д 100 табл. вагинал. N10 ;12158 ;Гедеон Рихтер ;79.61 ;1 ; 79.61;;;
