1280;Тамила;chmyrenko@inbox.ru;03.04.2014 10:28:34;Днепр;;0973972077;г.Днепропетровск Аптека №11 ул.Инженерная, 2-Д (ОптТорг);;
Аллохол табл., п о N50 ;7097 ;Борщаговский ХФЗ ;23.08 ;1 ; 23.08;;;
Сермион табл. 30мг N30 ;87722 ;Пфайзер ;169.31 ;1 ; 169.31;;;
