1373;Юлия;pavlova_zp@mail.ru;10.04.2014 12:05:58;Запорожье;;0975071506;г.Запорожье Аптека 32 ул.Чумаченко, 34;;
Пантенол-спрей детский фл.130г ;173192 ;Фармаком ;40.57 ;1 ; 40.57;;;
Крем универсальный Baby с d-пантенолом 70мл ;177289 ;Фармаком ;20.36 ;1 ; 20.36;;;
