1464;Рихлицкая Е.В.;apteka19@ikwell.dp.ua;16.04.2014 14:53:41;г.Винница;;0964526967;г.Винница Аптека 19, ул.Зодчих, 28-А;;
Торасемид Сандоз табл. 100мг N20 ;105129 ;Сандоз ;363.49 ;1 ; 363.49;;;
Платифилина г т амп.0.2% амп.1мл N10 Дарница ;5112 ;Дарница ;25.72 ;1 ; 25.72;;;
Папаверина гидрохлорид р-р д ин 2% амп.2мл N10 Дарница ;30862 ;Дарница ;24.96 ;1 ; 24.96;;;
Фиточай КЗ N23 эхинацея пак.1.5г N20 ;79919 ;Ключи Здоровья ;6.62 ;1 ; 6.62;;;
Горлоспас спрей 45 мл ;118753 ;Георг Биосистемы ;31.65 ;1 ; 31.65;;;
