1472;Падалка Людмила Алексеевна;katirina18@gmail.com;16.04.2014 20:43:05;Кировоград;;0502215812;г.Кировоград, Аптека 12, ул.Велика Перспективна, 50;;
Пио-бак секстафаг поливалентн. фл. 20мл №4 ;71019 ;Микроген ;285.35 ;2 ; 570.7;;;
Исмижен табл. 50 мг N 10 ;97920 ;Замбон Групп ;97.16 ;1 ; 97.16;;;
Исмижен табл. N30 ;82619 ;Замбон Групп ;263.58 ;1 ; 263.58;;;
