1528;Новомосковск М10;chmyrenko@inbox.ru;22.04.2014 13:41:46;Новомосковск;;0937507867;г.Новомосковск Аптека 10 ул.Советская, 35;;
Секнидокс табл.п о 1г N2 ;169790 ;Лаб Бейли-Креат ;50.82 ;3 ; 152.46;;;
Бионорм таб. №30 ;169527 ;Киевский ВЗ ;29.10 ;1 ; 29.1;;;
Изотрексин гель 30г ;99994 ;Стифел Лабароторис ;118.49 ;1 ; 118.49;;;
