1532;Нина;chmyrenko@inbox.ru;22.04.2014 14:35:59;Донецк;;050 854 18 86; г.Донецк Аптека 35 ул.Кирова, 99-Б;;
Энтерожермина сусп д перор. 5мл N10 ;171831 ;Санофи ;99.75 ;1 ; 99.75;;;
Вильпрафен табл. п о 500мг N10 ;83116 ;Яманучи ;294.69 ;1 ; 294.69;;;
Лактинет таб. п о 0,075мг №28 ;117166 ;Гедеон Рихтер ;131.00 ;1 ; 131;;;
