1535;Алина;chmyrenko@inbox.ru;22.04.2014 15:16:08;Днепр;;0937507867;  г.Днепропетровск Аптека №02  пер.Парусный, 12-Д (ОптТорг);;
Подг. д взр. TENA Slip Plus Medium N30 дыш. ;107368 ;SCA ;183.78 ;1 ; 183.78;;;
Кетолонг-Дарница табл. 0.01г N10 ;41609 ;Дарница ;10.04 ;1 ; 10.04;;;
