1567;Иванова Юлия;julia_p2002@inbox.ru;23.04.2014 15:18:28;ул.Артема, д.151а, кв.107;380506755080;380506755080; г.Донецк Аптека 12 ул.Университетская, 63;;
Кромофарм кап. глаз. 2% фл. п э 10мл ;62640 ;Фармак ;23.44 ;2 ; 46.88;;;
Кромофарм спрей назал. 2% фл. п э 15мл ;63384 ;Фармак ;30.76 ;2 ; 61.52;;;
Алерон табл. п о 5мг N30 ;90237 ;Балканфарма Холдинг ;61.87 ;1 ; 61.87;;;
Ксизал табл. 5мг №10 ;90636 ;ЮС Фармация ;99.75 ;1 ; 99.75;;;
Тавегил табл. 1мг N20 ;4600 ;Новартис Консьюмер ;50.83 ;1 ; 50.83;;;
