1584;Коваленко Евгения Вячеславовна;2121212@bigmir.net;24.04.2014 12:15:53;Чоколовский бульвар 27 к1;;0672789730;г.Киев Аптека 02 ул.Амосова, 2;;
Эпигалин капс. N60 ;228205 ;Bioshields ;385.40 ;1 ; 385.4;;;
ТАЗАЛОК КАПЛИ ПЕРОР.100МЛ ФЛ#1 ;111505 ;ЛУБНЫФАРМ ОАО УКРАИНА ЛУБНЫ ;164.73 ;2 ; 329.46;;;
