1599;Вера Петровна;chmyrenko@inbox.ru;25.04.2014 11:03:37;Днепр;;0937507867; г.Днепропетровск
Аптека 08 ул.Титова, 13-Б (ОптТорг);;
Ибупром Макс табл. п о 400мг N24 ;63512 ;ЮС Фармация ;62.41 ;1 ; 62.41;;;
Луцетам табл. п о 1200мг N20 ;84864 ;Эгис ;65.50 ;1 ; 65.5;;;
Новирин табл. 500мл N20 ;178546 ;Киевский ВЗ ;61.83 ;1 ; 61.83;;;
