1665;Дулебов Игорь Борисович;dib@optima.com.ua;29.04.2014 12:04:10;г.Запорожье Новокузнецкая 15 кв.68;;(067) 267-04-73;г.Запорожье Аптека 32 ул.Чумаченко, 34;;
Астин табл. п о 20 мг N30 ;74519 ;Микро Лабс ;97.88 ;1 ; 97.88;;;
Билобил капс. 40мг N60 ;38289 ;КРКА ;163.95 ;1 ; 163.95;;;
