1672;Мироненко Наталья;chmyrenko@inbox.ru;29.04.2014 13:08:43;днепр;;096 00 35 543; г.Днепропетровск
Аптека 08 ул.Титова, 13-Б (ОптТорг);;
Ксарелто табл. 15мг N14 ;167150 ;Байер АГ ;582.57 ;1 ; 582.57;;;
