1691;Полишко;polishko@ikwell.dp.ua;30.04.2014 09:20:41;К.Маркса;;778899;г.Днепропетровск Аптека 09 пр.К.Маркса, 125/63;;
Ринофлуимуцил аэр.назал.фл.10мл ;11267 ;Замбон Групп ;73.56 ;1 ; 73.56;;;
Хлорофиллипт табл. 0.025 N40 ;64255 ;ТОВДослідний завод ГНЦЛС,м.Харків, Україна ;10.35 ;1 ; 10.35;;;
