1696;Шевченко Олег Владимирович;o.v.sh@inbox.ru;30.04.2014 11:00:18;Харьков;;0667919547;г.Харьков Аптека 03 ул.Героев Труда, 6;;
Глюкофаж табл.500мг N60 ;80016 ;Никомед ;62.93 ;1 ; 62.93;;;
Стериллиум фл. 1л ;92161 ;Боде Хеми ;177.10 ;1 ; 177.1;;;
Витирон Сускапс капс.N30 ;18287 ;Мефа ;104.83 ;1 ; 104.83;;;
Трайкор табл. 145мг №30 ;138881 ;Солвей Фарма ;256.33 ;1 ; 256.33;;;
