1715;Доброскок Вика;vitavitusik@gmail.com;30.04.2014 18:23:47;Пер.Штурманский 1/114;;0675631372;  г.Днепропетровск Аптека №02  пер.Парусный, 12-Д (ОптТорг);;
Тенотен детский табл. N40 ;108466 ;Материя Медика ;61.70 ;1 ; 61.7;;;
Семакс капли назал. 0.1% фл 3мл ;104039 ;Имгран ;225.63 ;1 ; 225.63;;;
