1739;Михайлова Арина;Arina-1980@inbox.ru;05.05.2014 10:09:53;г.Киев;;0662328162;г.Днепропетровск Аптека №10 пр.Гагарина, 119;Киев аптека Амосова 2.;
Доксорубицин концент. д п инф. р-ра 50мг фл. 25мл N1* ;47003 ;Эбеве Арцнайм ;463.86 ;1 ; 463.86;;;
Этопозид-Тева концент. д приг  инф. р-ра 200мг 10мл фл.N1 ;66668 ;Тева ;372.83 ;2 ; 745.66;;;
Эндоксан пор. д п ин. р-ра 1г фл. N1 ;20768 ;Бакстер онколоджиГ.Б.М.Х. ;300.23 ;1 ; 300.23;;;
Зофран р-р д ин. 8мг амп. 4мл N5 ;48260 ;ГлаксоСмитКляйн ;141.00 ;1 ; 141;;;
