1740;Рухлов Игорь Валериевич;ruhlovigor@ventaltd.com.ua;05.05.2014 10:12:12;Просп. Кирова;;0936488739; г.Днепропетровск
Аптека 08 ул.Титова, 13-Б (ОптТорг);Сотрудник ООО \"Вента. ЛТД\";
Сомазина р-р д перор. прим.  фл. 30мл ;75075 ;Феррер Интернасиональ ;290.59 ;3 ; 871.77;;;
