1819;Ковалева;sikkarapuz@gmail.com;07.05.2014 12:43:04;Инна;;050-965-23-01; г.Днепропетровск
Аптека 08 ул.Титова, 13-Б (ОптТорг);;
Эреспал сироп 200мг 100мл фл. 150мл ;12490 ;Сервье ;59.22 ;1 ; 59.22;;;
