1836;Балашов Сергей;zakaz@ikwell.dp.ua;08.05.2014 09:50:39;К.Маркса;;0504874467; г.Днепропетровск
Аптека 08 ул.Титова, 13-Б (ОптТорг);;
Неомидантан табл.100мг N50 ;44254 ;Олайнский ХФЗ ;133.06 ;1 ; 133.06;;;
