1842;Таня Одесса;chmyrenko@inbox.ru;08.05.2014 10:53:38;Одесса;;067 234 72 12;г.Одесса Аптека 13 ул.Преображенская, 67;;
Би-Престариум табл. 10 5мг N30 ;106151 ;Сервье ;144.52 ;1 ; 144.52;;;
Кавинтон табл. 5мг N50 ;4309 ;Гедеон Рихтер ;114.76 ;1 ; 114.76;;;
