1893;Смирнов Сергей;sergey@smyrnov.com;13.05.2014 12:26:21;ул. Рабочая 146/71;;0677077572; г.Днепропетровск
Аптека 08 ул.Титова, 13-Б (ОптТорг);;
Спирива капс. 18мкг N30 д инг.50% ;44091 ;Берингер Ингельхайм, Германия ;442.10 ;1 ; 442.1;;;
Симбикорт Турбухалер пор. д ингаляций  320 9,0мкг 60доз ;88727 ;Астра Зенека ;587.00 ;1 ; 587;;;
