1993;Приходченко А.В.;prikhodchenkoigtm@meta.ua;15.05.2014 17:24:08;Днепропетровск, пр. Кирова;;0632268330; г.Днепропетровск
Аптека 08 ул.Титова, 13-Б (ОптТорг);;
Шприц Bogmark Tbc трёхк.1мл с иглой 0.5х16# ;62179 ;Medical-Lomza Sp.oz.o.j.v ;1.35 ;10 ; 13.5;;;
