2151;иквел34;chmyrenko@inbox.ru;21.05.2014 09:56:34;Винница;;093 750 78 67;г.Винница Аптека №34 ул.Пирогова, 46;;
Хартил табл. 10мг N28 ;75131 ;Эгис ;124.05 ;1 ; 124.05;;;
Небилет табл.5мг N28 ;21070 ;Берлин-Хеми ;89.23 ;1 ; 89.23;;;
