2220;Турова М.;Turova@mail.ru;22.05.2014 13:33:57;Киев;;0672565645;г.Киев Аптека 02 ул.Амосова, 2;;
Эндоксан пор. д п ин. р-ра 1г фл. N1 ;20768 ;Бакстер онколоджиГ.Б.М.Х. ;342.77 ;2 ; 685.54;;;
Этопозид-Тева концент. д приг  инф. р-ра 200мг 10мл фл.N1 ;66668 ;Тева ;327.30 ;2 ; 654.6;;;
Зофран р-р д ин. 8мг амп. 4мл N5 ;48260 ;ГлаксоСмитКляйн ;147.92 ;1 ; 147.92;;;
