2266;Эндоксан;chmyrenko@inbox.ru;23.05.2014 14:46:48;Днепр;;093 750 78 67; г.Днепропетровск
Аптека 08 ул.Титова, 13-Б (ОптТорг);;
Эндоксан пор. д п ин. р-ра 200мг фл. N10 ;20765 ;Бакстер онколоджиГ.Б.М.Х. ;708.66 ;1 ; 708.66;;;
