2269;Ковалева Алена Юрьевна;chv-olga@mail.ru;23.05.2014 16:47:49;Харьков,Салт.шоссе 263;;0679726168;г.Харьков Аптека 04 Салтовское шоссе, 262-А;Офтальмикс 5 уп.цена зак.-48,41 Милдралекс амп.-4уп.-161,0243 Милдралекс амп.-1уп-170,5366 Меломакс амп.1уп-54,5914 Меломакс амп 3уп-56,5816 Меломакс амп 1уп-57,1594 Аспенорм 100 №20-10уп-9,5330 Граци-верт №32-3 уп.-100,1040;
Офтальмикс капс № 30 ;150940 ;ГНЦЛС ;60.51 ;5 ; 302.55;;;
Милдралекс р-р д ин 10% амп.5мл № 10 ;142340 ;Здоровье ;182.05 ;5 ; 910.25;;;
Меломакс р-р д ин.10мг мл 1.5мл N5 ;175779 ;Фармекс Груп Борисполь ;68.59 ;5 ; 342.95;;;
Аспенорм табл. 100мг N20 ;160899 ;Фармекс Груп Борисполь ;12.51 ;10 ; 125.1;;;
ГРАЦИ-ВЕРТ ЭКСТР.ХУДИИ КАП.#32 ;254633 ;ГНЦЛС ГП УКРАИНА ХАРЬКОВ ;113.11 ;3 ; 339.33;;;
