2289;скряга елена владимировна;420425@mail.ru;25.05.2014 17:17:34;пер калинина д.3, кв.7;;0990791303; г.Днепропетровск Аптека №01 ул.Пастера, 2 (ОптТорг);лекарственные препараты заберу самовывозом оплата нал или через терминал.;
Эпигалин капс. N60 ;228205 ;Bioshields ;365.63 ;1 ; 365.63;;;
Мастодинон табл. N60 ;47233 ;Бионорика Арцнайм ;130.58 ;1 ; 130.58;;;
