2298;Александр;chmyrenko@inbox.ru;26.05.2014 11:00:57;Днепр;;067 544 84 84; г.Днепропетровск
Аптека 08 ул.Титова, 13-Б (ОптТорг);;
Доцетаксел-Тева конц.д р-ра д инф.20мг фл.№1+раств ;200419 ;АТ Фармацевтичний завод ТЕВА, Угорщина ;1612.56 ;1 ; 1612.56;;;
