2336;Рихлицкая Е.В.;apteka19@ikwell.dp.ua;27.05.2014 10:32:25;г.Винница;;0964526967;г.Винница Аптека 19, ул.Зодчих, 28-А;дабавте в заказ Остеогенон табл.N40-3 уп.зак. ціна 253,45(30.04.14 і 12.05.14),;
Сбор Нефрофит пак. 1,5г N20 ;95423 ;Эйм ;18.59 ;1 ; 18.59;;;
Уролесан капли 25мл & ;663 ;Галичфарм ;57.18 ;1 ; 57.18;;;
