2362;TEST;TEST@ua.fm;27.05.2014 16:07:20;TEST;1234;12314;г.Днепропетровск Аптека №10 пр.Гагарина, 119;TESTTESTTESTTEST;
Бандаж  послеоперационный(абдомин) разм. 4 ;55766 ;Витали Украина ;88.84 ;1 ; 88.84;;;
ЖАВЕЛЬ-КЛЕЙД ДЕЗИНФ.СР.ТАБ#150 ;159907 ;СОСАЙЕТЕ НОВЕЛЛ КЛЕЙД ФРАНЦИЯ ;141.15 ;1 ; 141.15;;;
ЖАВЕЛЬ-КЛЕЙД ДЕЗИНФ.СР.ТАБ#60 ;159908 ;СОСАЙЕТЕ НОВЕЛЛ КЛЕЙД ФРАНЦИЯ ;62.75 ;3 ; 188.25;;;
90-60-90 табл. N40 ;78106 ;Элит-Фарм ;20.30 ;1 ; 20.3;;;
