2386;Павленко Анна Владимировна;pavlenko@gppes.donetsk.ua;28.05.2014 13:10:32;Донецк ул. 4-я Пятилетка д.13;;0507673610;г.Донецк Аптека 03 ул.Октября, 20-А;дисконтная карта 185203;
Диазид MB табл. с модиф. высвоб. 30мг N60 ;233444 ;Фарма Старт ;48.08 ;1 ; 48.08;;;
Сиофор-850 табл. 850мг N60* ;32495 ;Берлин-Хеми ;116.39 ;1 ; 116.39;;;
Липразид 20 табл. N30 ;46539 ;Борщаговский ХФЗ ;58.30 ;1 ; 58.3;;;
Моносан таб.40мг N30 ;7610 ;Про.Мед.ЦС. ;56.31 ;1 ; 56.31;;;
Кардиомагнил Форте табл. N100 ;71403 ;Никомед ;57.46 ;1 ; 57.46;;;
Пустырника настойка 25мл фл. Фитофарм ;7192 ;Фитофарм ;2.63 ;2 ; 5.26;;;
Валериана форте плюс капс. 250мг N30 ;196673 ;Аптека №283 ООО ;13.57 ;1 ; 13.57;;;
Вата мед н стер. 100г  Укрвата ;38934 ;Укрвата ;6.47 ;1 ; 6.47;;;
Бинт нестерильный 5х10 Укрвата ;42615 ;Укрвата ;2.39 ;2 ; 4.78;;;
