2412;Крейндель Т.В.;chv-olga@mail.ru;29.05.2014 12:14:58;Салт.шоссе 262А;;0679726168;г.Харьков Аптека 04 Салтовское шоссе, 262-А;Гиамакс С №60-2уп-ц.зак.98,28 гиамакс с №60-5уп-ц.зак.-108,54 хондромакс компл.№60 2 уп-110,1120 хондромакс компл.№60 5 уп-124,50;
Гиамакс С капс. N60 ;160980 ;Фармекс Груп Борисполь ;121.31 ;7 ; 849.17;;;
Хондромакс Комплекс табл. №60 ;167732 ;Фармекс Груп Борисполь ;140.69 ;7 ; 984.83;;;
Драй-Драй дезодорант д тела 35мл ;155350 ;Эксельсиор ;147.10 ;1 ; 147.1;;;
