2431;Рихлицкая Е.В.;apteka19@ikwell.dp.ua;29.05.2014 16:22:42;г.Винница;;0964526967;г.Винница Аптека 19, ул.Зодчих, 28-А;;
Ригевидон таб.п сах.обол. N 63# ;882 ;Гедеон Рихтер ;248.19 ;1 ; 248.19;;;
Ортофен табл. 0.025 N30 Витамины ;62632 ;Витамины Умань ;6.21 ;1 ; 6.21;;;
Кардиомагнил табл. 75мг N100 ;69828 ;Никомед ;52.01 ;1 ; 52.01;;;
Эналозид 10мг 25мг табл. N20 ;40078 ;Фармак ;16.93 ;1 ; 16.93;;;
