2442;Рихлицкая Е.В.;apteka19@ikwell.dp.ua;30.05.2014 10:25:19;г.Винница;;0964526967;г.Винница Аптека 19, ул.Зодчих, 28-А;;
Тивортин аспартат р-р д перор.прим.200мл ;33748 ;Юрия ;144.17 ;1 ; 144.17;;;
Энтроп табл. 100мг N20 ;88497 ;Олайнский ХФЗ ;255.86 ;1 ; 255.86;;;
