2557;Елена;chmyrenko@inbox.ru;03.06.2014 16:02:37;Днепр;;066489 34 48;г.Днепропетровск Аптека №10 пр.Гагарина, 119;;
Цитеал р-р д наружн. прим. фл. 250мл ;2450 ;Пьеро Фарб Медикам-т ;102.26 ;1 ; 102.26;;;
Гинофлор табл. ваг. N6 ;66229 ;Мединова Лтд. ;105.29 ;1 ; 105.29;;;
Полижинакс капс.вагинал. N6 ;4235 ;Иннотек Инт. ;94.11 ;1 ; 94.11;;;
