2618;Александр;zakaz@ikwell.dp.ua;05.06.2014 09:48:23;Киев;;0503107123;г.Киев Аптека 02 ул.Амосова, 2;;
Дифорс 160 таб.п о 5мг 160мг N 30 ;38479 ;Фарма Старт ;101.08 ;1 ; 101.08;;;
Дифорс XL 160 таб.п о 10мг 160мг N 30 ;40105 ;Фарма Старт ;113.51 ;1 ; 113.51;;;
Медихронал гран.пак 28.5г N 7 ;22831 ;Дарница ;198.68 ;1 ; 198.68;;;
Супрадин табл. шип. N10 фл. ;84183 ;Рош Консьюмер ;59.71 ;1 ; 59.71;;;
Потенциале табл.0.05г N4 ;43912 ;Технолог ;100.60 ;1 ; 100.6;;;
