2726;Рыбникова Наталья Васильевна;stelnv@mail.ru;07.06.2014 19:55:58;Россия Красноярск Металлургов 10Б 22;;89080258826;г.Киев Аптека 02 ул.Амосова, 2;Нужна срочная доставка;
Иммуноглобулин чел. п вируса Эпштейна-Барр амп. 1.5мл N10 ;47454 ;Биофарма ;310.00 ;2 ; 620;;;
Иммуноглобулин человека антицитомегаловирусный р-р 1,5мл амп. N10 ;31442 ;Биофарма ;524.35 ;2 ; 1048.7;;;
