2755;Чхало Людмила Олексіївна;Ledi-x2008@ukr.net;09.06.2014 19:49:48;вул. Бурмістенка 4;;0930450753;г.Киев Аптека 02 ул.Амосова, 2;Возможна ли доставка?;
Эндометрин таб. ваг 100 мг. №30 ;108326 ;Флорис Беншимон ;372.35 ;1 ; 372.35;;;
Витамин E капс. 400МЕ N30 ;75801 ;Словакофарма ;65.03 ;1 ; 65.03;;;
