2765;Ирина Ростиславовна Шевчук;irynashevchuk@yandex.ru;10.06.2014 11:07:29;ул. Пушкинская 34, 01004 Киев;(044) 481 33 99;(067) 762 13 75;г.Киев Аптека 02 ул.Амосова, 2;;
Ко-Ренитек табл. 20мг + 12.5мг N28 ;6913 ;Мерк Шарп и Доум ;86.20 ;1 ; 86.2;;;
Ренитек табл.20мг N28 ;4239 ;Мерк Шарп и Доум ;92.93 ;1 ; 92.93;;;
