2773;Завальнюк А.Н.;zavalnuk@ikwell.dp.ua;10.06.2014 12:41:07;вИННИЦА;;0676360452; г.Винница Аптека №05 ул. Киевская, 47;для сотрудника Завальнюк А.Н.;
Молескин крем 1% 15г туба ;181675 ;Фармак ;53.25 ;1 ; 53.25;;;
Прамипекс табл. 0.25мг N30 ;230587 ;Фарма Старт ;116.86 ;1 ; 116.86;;;
