2815;Крысюк Сергей;apteka13@ikwell.dp.ua;11.06.2014 10:02:29;Преображенская ,67;;777-60-58;г.Одесса Аптека 13 ул.Преображенская, 67;Орнизол табл.0.5г N10-1 уп;
Карсил форте капс.90мг N30 ;121240 ;Софарма ;83.79 ;1 ; 83.79;;;
Лавомакс табл. п о 125мг N10 ;92625 ;Нижфарм ;227.02 ;1 ; 227.02;;;
Лактовит форте капс. N30(10х3) ;99612 ;Лактовит форте капс. N30(10х3) ;83.13 ;1 ; 83.13;;;
Лаферобион супп 3 млн. МЕ N5 ;84553 ;Биофарма ;125.48 ;1 ; 125.48;;;
Хинофуцин-ЛХ супп.вагинал. 0.015г N5 ;22691 ;Лекхим ;59.19 ;1 ; 59.19;;;
