2835;Елена;chmyrenko@inbox.ru;11.06.2014 13:40:05;Харьков;;067 926 37 30;г.Харьков Аптека 04 Салтовское шоссе, 262-А;;
Мираксол табл. 1мг N30 ;167494 ;Борщаговский ХФЗ ;449.77 ;1 ; 449.77;;;
Левоком табл. N100 ;56123 ;Фарма Старт ;225.96 ;1 ; 225.96;;;
