2858;Смаглий Татьяна Сергеевна;smagly.tatyana@yandex.ua;11.06.2014 18:20:00;гю Кривой Рог. Улю Литейная 101/3.;;0966377969; г.Кривой Рог Аптека 07  пр.Карла Маркса, 43, пом.8 (ОптТорг);;
Молескин С мазь 15г туба ;190597 ;Фармак ;56.37 ;1 ; 56.37;;;
Гистафен табл.50мг N20 ;77354 ;Олайнский ХФЗ ;128.23 ;1 ; 128.23;;;
Фенкарол табл. 0,025г  N20 ;3596 ;Олайнский ХФЗ ;69.27 ;1 ; 69.27;;;
Кандид Б крем туба15г ;50771 ;Гленмарк ;70.20 ;1 ; 70.2;;;
Натрия тиосульфат р-р д ин.30% амп. 10мл N10 Биолек ;154922 ;Биолек ;26.56 ;1 ; 26.56;;;
