2900;Лебедевич Т,А,;media@multinet.dp.ua;12.06.2014 17:10:32;пАВЛОГРАД , ул. Станкостроителей 12/81;;0950373711;г. Павлоград, Аптека № 20 ОптТорг  ул.К.Маркса,54;;
Амитриптилин табл. 25мг N25 ;54808 ;ТОВХарківське фармацев.підприємствоЗдоров`я народу,м. Харків, Україна ;12.14 ;1 ; 12.14;;;
Дифметре табл. шип. N10 туба ;138477 ;Аббот ;147.19 ;1 ; 147.19;;;
