3015;Максакова Ирина;irinaodessa2007@rambler.ru;16.06.2014 13:53:34;г. Одесса;;0958839430;г.Одесса Аптека 13 ул.Преображенская, 67;;
Орнидазол капс. 0.5г №10 ;86171 ;АстраФарм ;20.44 ;4 ; 81.76;;;
Экобиол капс. N20 ;187088 ;Шонен ;90.39 ;1 ; 90.39;;;
Клион-Д 100 табл. вагинал. N10 ;12158 ;Гедеон Рихтер ;94.32 ;1 ; 94.32;;;
Кетодин супп. 400мг №5 ;91466 ;Сперко Украина ;62.13 ;1 ; 62.13;;;
