3049;Желяскова;apteka13@ikwell.dp.ua;17.06.2014 10:19:59;Ул Преображенская ,67;777-60-58;777-60-58;г.Одесса Аптека 13 ул.Преображенская, 67;;
Табакум плюс гран.10г ;19511 ;Национ.гомеопат.Союз ;39.40 ;1 ; 39.4;;;
Джаз табл. N28 ;89338 ;Шеринг-Плау ;172.84 ;1 ; 172.84;;;
Анестезол супп.ректал.N5 ;12739 ;Лекхим ;14.82 ;1 ; 14.82;;;
