3053;Марина;chmyrenko@inbox.ru;17.06.2014 10:54:09;Харьков;;066 359 81 72;г.Харьков Аптека 03 ул.Героев Труда, 6;на среду;
Кузимолол кап. глаз. 0.5% фл.-капельн. 5мл ;29477 ;Алкон ;32.01 ;1 ; 32.01;;;
Нолипрел аргинин N30 ;90741 ;Сервье ;104.88 ;1 ; 104.88;;;
Ницерголин табл. 0.01 N30 ;37356 ;Галичфарм ;31.50 ;3 ; 94.5;;;
Сиофор-500 табл. 500мг N60* ;8721 ;Берлин-Хеми ;90.98 ;2 ; 181.96;;;
