3089;Каризская Инна Александровна;karizskie@ukr.net;17.06.2014 16:42:00;Киев, ул.Ветрова;;0997470874;г.Киев Аптека 02 ул.Амосова, 2;Есть доставка курьером?;
Валавир табл. п о 500 мг N 42 ;84831 ;Фармак ;441.81 ;1 ; 441.81;;;
Валавир таб. п о 500мг N 10 ;25461 ;Фармак А ;125.75 ;2 ; 251.5;;;
Гропринозин табл.500мг N50 ;6763 ;Гедеон Рихтер ;227.68 ;6 ; 1366.08;;;
Хофитол табл. блистер N180 ;111746 ;Роза-Фитофарм ;167.94 ;1 ; 167.94;;;
Виферон супп. 1000 000МЕ блистер N10 ;42013 ;Ферон ;193.67 ;1 ; 193.67;;;
