3200;Гопка Виталий Николаевич;gopka.wit@gmail.com;19.06.2014 20:21:51;КРИВОЙ РОГ;;0984121703; г.Кривой Рог Аптека 07  пр.Карла Маркса, 43, пом.8 (ОптТорг);;
Лаверон табл. 250мг N30 для мужчин ;103279 ;Хелс Каре ;97.92 ;1 ; 97.92;;;
Лаверон табл. 500мг N1 для мужчин ;103281 ;Хелс Каре ;61.73 ;1 ; 61.73;;;
