3335;Надя стажер);nadia031@mail.ru;23.06.2014 15:10:32;Днепр;;0676897938; г.Днепропетровск Аптека №21 пр.К.Маркса, 117;;
Нурофен табл. 200мг  N24 ;99353 ;Реккитт Бенкизер ;47.39 ;1 ; 47.39;;;
Кавинтон табл. 5мг N50 ;4309 ;Гедеон Рихтер ;113.03 ;1 ; 113.03;;;
