3337;новицкая;nov_1234_09@mail.ru;23.06.2014 15:19:42;к маркса;;097; г.Днепропетровск Аптека №21 пр.К.Маркса, 117;закупка: тонометр - 165,85 от 06.06. ,эналапр - 5,31 от 18.06., кордарон - 102,00 от 13.06;
Тонометр BP AG 1-30 с стет. (механика) ;40023 ;Микролайф ;197.29 ;1 ; 197.29;;;
Эналаприл табл.0,01г N20 ;9897 ;Здоровье ;6.66 ;1 ; 6.66;;;
Кордарон табл. 200мг N30 ;105275 ;Санофи ;113.99 ;1 ; 113.99;;;
