3386;Сергей;a.stypnikova@ikwel.dp.ua;24.06.2014 12:48:48;киев;;0666668967;г.Киев Аптека 02 ул.Амосова, 2;;
Блемарен табл.шип.N80 ;61292 ;Эспарма ;273.74 ;1 ; 273.74;;;
Гипотиазид табл. 25мг N20 ;4291 ;Санофи ;38.28 ;1 ; 38.28;;;
Фитолит Форте H капс. N30 ;164893 ;Здоровье ;35.11 ;1 ; 35.11;;;
