3430;Наталья;a.stypnikova@ikwel.dp.ua;25.06.2014 12:14:24;Харьков;;0938120593;г.Харьков Аптека 03 ул.Героев Труда, 6;;
Тридерм мазь 15г ;9236 ;Шеринг-Плау ;129.79 ;1 ; 129.79;;;
Лактиале пак.1г№10 ;164627 ;Фармак ;49.35 ;1 ; 49.35;;;
