3485;Логачева Наталия Юрьевна;naatali78@mail.ru;26.06.2014 15:10:27;г. Сумы, ул. Черепина, 42/1, кв. 58;;0951786869;г.Сумы Аптека 30 ул.Новогодняя, 8;;
Мидиана таб №21 ;136618 ;Гедеон Рихтер ;136.64 ;1 ; 136.64;;;
Флутафарм табл. 0.25 N50 ;47462 ;Фармак ;282.34 ;1 ; 282.34;;;
Метфогамма табл. 1000мг N120 ;87851 ;Верваг Фарма ;196.96 ;1 ; 196.96;;;
