3535;Элина;zakaz@ikwell.dp.ua;27.06.2014 16:59:01;донецк;;0994056204;г. Донецк, Аптека № 19 ОптТорг  пр. Киевский, д. 9А;;
Л-флокс р-р д ин.500мг 100мл фл.100мл №1 ;131316 ;Люпин ;60.08 ;4 ; 240.32;;;
Изопринозин табл. 500мг N50 ;19264 ;Биогал ФЗ ;366.38 ;1 ; 366.38;;;
Генферон ИБ 1 000 000 МЕ супп.№10 ;175756 ;ЗАТ БІОКАД ;186.91 ;1 ; 186.91;;;
Циклоферона линим.5% туба 30мл с 5 аппликат. ;90824 ;Полисан НТФФ ;117.28 ;1 ; 117.28;;;
