3587;Александра;a.stypnikova@ikwel.dp.ua;01.07.2014 13:06:09;Днепр;;0675448484; г.Днепропетровск
Аптека 08 ул.Титова, 13-Б (ОптТорг);Наименование 	Производитель 	Цена 	Кол-во 	Сумма (грн.) 	Доксорубицин-КМП пор. лиофил. д п р-ра д ин. 0.01г фл. N 1 	Киевмедпрепарат 	41,06 	8 шт. 	328,48 закупка 33,1272;
Доксорубицин-КМП пор. лиофил. д п р-ра д ин. 0.01г фл. N 1 ;24129 ;Киевмедпрепарат ;41.11 ;8 ; 328.88;;;
