3621;Цукан Оксана;oksana.tsukan@gmail.com;01.07.2014 22:58:37;г.Харьков, ул. Залесская 3-А, кв. 77;;0955546858;г.Харьков Аптека №21,пр.Победы,61-В;;
Ацекор Кардио табл. 100мг №50 ;97031 ;Микрохим ;31.97 ;1 ; 31.97;;;
Дикор Лонг табл 40мг №50 ;141582 ;Микрохим ;67.76 ;1 ; 67.76;;;
Аспирин Кардио 100мг N 28# ;149390 ;Байер-Шеринг ;53.90 ;1 ; 53.9;;;
Нейровитан табл. N30 ;11589 ;Хикма ;79.43 ;1 ; 79.43;;;
