3630;Надежда;chmyrenko@inbox.ru;02.07.2014 10:14:31;киев;;096 740 40 42;г.Киев Аптека 02 ул.Амосова, 2;;
Макмирор Комплекс капс.вагинал.мягкие №8 ;171808 ;Доппель Фармацеутіці С.р.Л. ;133.06 ;1 ; 133.06;;;
Бифолак Печаевские свечи N5 ;74022 ;Лекхим ;167.01 ;1 ; 167.01;;;
