3667;Сергей;chmyrenko@inbox.ru;02.07.2014 14:44:45;Киев;;066 295 22 98;г.Киев Аптека 02 ул.Амосова, 2;;
Фитолит Форте H капс. N60 ;164894 ;Здоровье ;61.49 ;2 ; 122.98;;;
Фокусин капс. 0.4мг N30 ;79306 ;Словакофарма ;152.02 ;1 ; 152.02;;;
