3735;Люба;chmyrenko@inbox.ru;03.07.2014 15:27:32;днепр;;093 750 78 67;  г.Днепропетровск Аптека №02  пер.Парусный, 12-Д (ОптТорг);;
Полимик табл. N10 ;72815 ;Кусум ;81.96 ;1 ; 81.96;;;
Вормил табл.жев. 400мг N3* (3х1) ;178163 ;Віндлас Хелскере Пвт.Лтд, Індія ;44.57 ;3 ; 133.71;;;
Омез капс. 20мг N30 ;4771 ;Др.Реддис Лаб ;51.98 ;1 ; 51.98;;;
