3783;Рабина Виктория;v.danaya@i.ua;04.07.2014 12:17:17;Амосова 2;;0501307072;г.Киев Аптека 02 ул.Амосова, 2;;
Масло Зародышей пшеницы фл.100мл Жемчужина ;170595 ;Жемчужина Полесья ;15.60 ;1 ; 15.6;;;
Масло Виноградных косточек фл.100мл Жемчужина ;170592 ;Жемчужина Полесья ;16.06 ;1 ; 16.06;;;
