3807;менго 9;chmyrenko@inbox.ru;04.07.2014 17:11:29;днепр;;093 750 78 67;г.Днепропетровск Аптека 09 пр.К.Маркса, 125/63;;
Целестодерм-В мазь 0.1% 15г ;31788 ;Шеринг АГ ;70.74 ;1 ; 70.74;;;
Тысячелистник трава пак. 1.5г N20 Виола ;84703 ;Виола ФФ ;6.27 ;1 ; 6.27;;;
