3811;Котов Яков Александрович;kotdj@ya.ru;04.07.2014 19:14:56;Карагандинская, 18;;0633271985;г.Донецк Аптека 03 ул.Октября, 20-А;;
Эпигалин капс. N60 ;228205 ;Bioshields ;367.33 ;1 ; 367.33;;;
Дуфастон табл. п о 10мг N20 ;165309 ;Солвей Фарма ;183.93 ;1 ; 183.93;;;
