3900;Лидия;chmyrenko@inbox.ru;08.07.2014 11:25:16;днепр;;+38(097) 329-76-44; г.Днепропетровск Аптека №01 ул.Пастера, 2 (ОптТорг);заказ в офис;
Дифорс табл. 160мг N30 ;175952 ;Фарма Старт ;93.20 ;2 ; 186.4;;;
Торвакард табл. 40мг N30 ;79251 ;Зентива ;147.61 ;1 ; 147.61;;;
