3921;Елена Сергеевна;sanchenko@ikwell.dp.ua;08.07.2014 16:05:18;донецк;;+38(095) 580-32-24; г.Донецк Аптека 12 ул.Университетская, 63;;
Дарсил табл. 0.035г N50 ;47414 ;Дарница ;28.04 ;2 ; 56.08;;;
Алотендин табл. 5мг 5мг N30 ;136853 ;Эгис ;103.94 ;1 ; 103.94;;;
