4021;Колесникова;yaganova73@gmail.com;11.07.2014 10:13:57;Винница;;+38(096) 588-07-54;г.Винница Аптека №34 ул.Пирогова, 46;для сотрудника;
Ципрамил табл. 20мг N28 ;29024 ;Х.Лундбек ;406.64 ;1 ; 406.64;;;
Детралекс табл.500мг N60 ;76689 ;Сервье ;223.55 ;1 ; 223.55;;;
Гидазепам табл.0.02г N20 ;51937 ;ИнтерХим ;49.22 ;1 ; 49.22;;;
