4065;Чаплыгин К. А.;konst_net@ukr.net;13.07.2014 09:57:55;Харьков, пр. Гагарина 197, 60;;+38(097) 345-03-40;г.Харьков Аптека 04 Салтовское шоссе, 262-А;;
ЭРОСИЛ ТАБ.50МГ #2 ;193865 ;АСТРАФАРМ ООО УКРАИНА ВИШНЕВОЕ ;39.17 ;1 ; 39.17;;;
Йохимбина г х табл. 0.005г N50 ;4968 ;Здоровье ;40.98 ;1 ; 40.98;;;
