4094;Клетухина Евгения Сергеевна;evgeniya008@gmail.com;14.07.2014 15:29:09;Николаев,Потемкинская 17;;+38(097) 210-38-02;г.Николаев  Аптека №15 пр.Ленина,27-Б (ОптТорг);;
Стоп Купероз Гель нейтральный д умывания 270мл ;228920 ;Фито Био технологии ;47.28 ;1 ; 47.28;;;
Стоп Купероз Крем SPF 15 ежедневный 30мл ;228921 ;Фито Био технологии ;58.81 ;1 ; 58.81;;;
