4209;Будулай;sanchenko@ikwell.dp.ua;17.07.2014 13:08:26;киев;;+38(093) 194-05-03;г.Киев Аптека 02 ул.Амосова, 2;;
МАДЖИК СТАФФ ФОРТЕ КАПС.#4 ;190327 ;В-МИН ООО РОССИЯ ;397.73 ;5 ; 1988.65;;;
УРСОЛИЗИН 300МГ КАПС.300МГ#100 ;221396 ;МИТИМ С.Р.Л. ИТАЛИЯ ;527.68 ;1 ; 527.68;;;
Легалон 140 капс. 140мг N60 ;18629 ;Мадаус АГ ;188.25 ;3 ; 564.75;;;
Креон 10000 капс.150мг N20 ;164829 ;Солвей Фарма ;105.49 ;2 ; 210.98;;;
Омник капс. 0.4 N30 ;83248 ;Яманучи ;290.90 ;3 ; 872.7;;;
Уросепт супп. 0.2г N10 ;31953 ;Лекхим ;30.00 ;1 ; 30;;;
