4290;Коцюмбас Лариса Валентинівна;Apteka6@ikwell.dp.ua;21.07.2014 12:10:27;г.Львов;;+38(067) 783-78-93;г.Львов Аптека 06 ул.Городоцкая, 88/90;;
Билобил Интенс 120мг капс.120мг №10х6 ;115592 ;КРКА ;341.60 ;1 ; 341.6;;;
Тризипин р-р д ин. 100мг мл 5мл N10 ;31760 ;Микрохим ;211.90 ;1 ; 211.9;;;
