4315;Лидия;chmyrenko@inbox.ru;21.07.2014 15:20:37;днепр;;+38(093) 750-78-67; г.Днепропетровск Аптека №01 ул.Пастера, 2 (ОптТорг);93-175952 153-79251;
Дифорс табл. 160мг N30 ;175952 ;Фарма Старт ;95.74 ;2 ; 191.48;;;
Торвакард табл. 40мг N30 ;79251 ;Зентива ;152.78 ;1 ; 152.78;;;
