4345;попазова и.д;frau.popazowa2011@yandex.ua;22.07.2014 12:53:49;одесская обл измаил;;+38(098) 211-39-94;г.Днепропетровск Аптека №10 пр.Гагарина, 119;;
Липы цветы пак. 1.5г N20 Виола ;84662 ;Виола ФФ ;10.91 ;4 ; 43.64;;;
Ромашки цветки 50г пачка Виола ;70057 ;Виола ФФ ;8.93 ;3 ; 26.79;;;
Сбор желчегонный N2 50г ;13798 ;Лектравы ;7.39 ;1 ; 7.39;;;
КР.-БАЛ.ХОНДРОТОП 75МЛ ;159976 ;ЭЛИКСИР ООО УКРАИНА ДНЕПРОПЕТРОВСК ;18.13 ;3 ; 54.39;;;
