4385;Апт33;apteka33@ikwell.dp.ua;23.07.2014 12:40:27;никополь;**;+38(050) 451-56-80; г.Никополь Аптека 33  пр.Трубников, 26;для сотрудников;
Тест глюкозо-толер.75.75 ;61929 ;Фармак ;20.40 ;1 ; 20.4;;;
Калия хлорид р-р 4% фл. 50мл ;108996 ;Инфузия ;12.80 ;1 ; 12.8;;;
Ренель Н табл.N50 ;70314 ;Хеель ;82.90 ;1 ; 82.9;;;
БИОСЕЛАК КАПС.ВАГ.#10 ;189193 ;БИОМЕД ИБСВ ПОЛЬША ;95.71 ;1 ; 95.71;;;
Тонгинал р-р д внутр. прим. фл. 50мл ;40097 ;Биттнер ;109.54 ;1 ; 109.54;;;
Билобил форте капс. 80мг N 60 ;63170 ;КРКА ;264.80 ;1 ; 264.8;;;
