4416;TEST;weq@ua.fm;24.07.2014 10:54:19;TEST;1342123;+38(097) 575-05-40;г.Днепропетровск Аптека №10 пр.Гагарина, 119;1243;
Аевит капс. N10 ;22082 ;Киевский ВЗ ;11.63 ;1 ; 11.63;;;
Абактал р-р д ин.  400мг амп 5мл N10 ;29696 ;Лек ;118.05 ;1 ; 118.05;;;
5-нок др. 50мг N50 ;5239 ;Лек ;83.33 ;1 ; 83.33;;;
Абактал табл. 400мг N10 ;112602 ;Лек ;61.45 ;1 ; 61.45;;;
