691;Полишко;vera210382@mail.ru;04.11.2013 20:52:49;к.Маркса;;0667186919;г.Днепропетровск Аптека №08  пр. К.Маркса, 12-Д;;
Цераксон табл. 500мг №20 ;127692 ;Никомед ;399.04 ;1 ; 399.04;;;
Кардиомагнил Форте табл.  N30 ;71402 ;Никомед ;24.96 ;1 ; 24.96;;;
Нейромидин табл.20мг N50 ;86363 ;Олайнский ХФЗ ;109.48 ;1 ; 109.48;;;
Магне-В6 Премиум табл.п о N60 (15х4) ;81683 ;Санофи, Франция ;106.47 ;1 ; 106.47;;;
Розарт табл.10мг N30 ;169265 ;Актавис ;57.72 ;1 ; 57.72;;;
