751;Рихлицкая О. В.;Apteka19@ikwell.dp.ua;29.11.2013 11:29:11;г.Винница 1 пров.И.Франка 9/2;;0964526967;г.Винница Аптека №19, ул.Зодчих, 28-А;;
Далацин Т гель 1% туба 30г ;12627 ;Фармация и Апджон ;88.27 ;1 ; 88.27;;;
Домрид SR табл.пролонг.действ. 30мг №30 ;153152 ;Кусум Фарм ;68.67 ;1 ; 68.67;;;
