778;Рак Олександр Володимирович;elegzendr@yandex.ru;10.12.2013 16:55:12;ул. Соломенская 22;;+380996443364;г.Киев Аптека №02 ул.Амосова, 2;;
Диаформин SR табл.500мг N60 ;161559 ;Фармак ;54.80 ;1 ; 54.8;;;
Аторис табл.20мг N90 ;62408 ;КРКА ;180.07 ;1 ; 180.07;;;
Йодид-Фармак табл. 100мг N50 ;45735 ;Фармак ;6.79 ;4 ; 27.16;;;
