787;аптека 1 МЕНГО;apteka1@mengo.dp.ua;13.12.2013 13:59:44;Калинова 1;39-74-37;39-74-37;г.Днепропетровск Аптека №01 ул. Калиновая, 1;под заказ клиента;
Кришталь фл. 30мл ;45877 ;Экомед ;23.95 ;2 ; 47.9;;;
Ревмосан капли 30мл ;47885 ;Экомед ;23.49 ;2 ; 46.98;;;
Кордевит 30мл ;46488 ;Экомед ;23.69 ;2 ; 47.38;;;
