802;Богуцкий В.А.;bviktor@ikwell.dp.ua;17.12.2013 15:11:50;К.Маркса;;067-368-41-37;г.Днепропетровск Аптека №08  пр. К.Маркса, 12-Д;;
Дона пор.д приг.раств.д перор.исп 1,5 г N 20 ;63382 ;Роттафарм ;373.41 ;2 ; 746.82;;;
Кальцемин Адванс табл. п о N120 ;71389 ;Сагмел Инк. ;111.29 ;1 ; 111.29;;;
