830;Хараман Виктория Сергеевна;vict.merenkova@yandex.ru;28.12.2013 14:04:09;макеевка, ул. Кипренского,11;;0950513507;г.Донецк Аптека№12 ул.Университетская, 63;;
Презервативы Hello Intim №3 ;126813 ;Шанхэй ;1.18 ;5 ; 5.9;;;
Презервативы Hello Lovely №3 ;126807 ;Шанхэй ;1.16 ;5 ; 5.8;;;
Презервативы Hello Oy Yes №3 ;126811 ;Шанхэй ;1.14 ;5 ; 5.7;;;
Презервативы Hello Trus N3 ;126817 ;Шанхэй ;1.15 ;5 ; 5.75;;;
Презервативы Гламур N12 пупырышки ;179360 ;Convex Latex ;19.04 ;2 ; 38.08;;;
Презервативы Неваляшка N3 Волшебные палочки ;129729 ;Импорт ;1.20 ;5 ; 6;;;
Презервативы Неваляшка №3 Шапка Невидимка ;129723 ;Shang Hai Latex Factory ;1.19 ;5 ; 5.95;;;
