835;Гуля Николай Васиьевич;nk-17@rambler.ru;30.12.2013 14:40:29;Киев, пр.Комарова 17, кв.17;;0975901011;г.Киев Аптека №02 ул.Амосова, 2;;
Зубная паста Лакалут-актив 50мг ;16341 ;Др.Тайс Натурварен ;21.46 ;1 ; 21.46;;;
Зубная паста Лакалут Альпин 50мл ;149467 ;Др.Тайс Натурварен ;19.86 ;1 ; 19.86;;;
