841;Васькова Ирина Борисовна;irishka.vaskova@yandex.ru;02.01.2014 20:15:31;П;;+380959245155;г.Павлоград Аптека№22 ул.Полтавская, 129/4;С новым годом!!!!!!!!!Успехов и улыбок всему коллективу вашего замечательного предприятия!!!!!!!!;
Бетасерк табл. 24мг N60 ;237433 ;Солвей Фарма ;244.96 ;1 ; 244.96;;;
Глицин табл. 0.1г N50 Биотик ;66920 ;Биотик ;12.07 ;1 ; 12.07;;;
