858;Федорова Ирина Влад.;irena.fedorova@gmail.com;11.01.2014 13:05:59;Днепропетровск, пр.Гагарина 82;;097-773-83-92;г.Днепропетровск Аптека №06 пр. Гагарина, 82;;
Алактин табл.0.5мг №2 ;124796 ;Уния ;97.81 ;1 ; 97.81;;;
Цистон табл. N100 ;4658 ;Хималайя Драг ;56.09 ;1 ; 56.09;;;
