897;Соколова-Юдина Татьяна Николаевна;T20052005@ukr.net;25.01.2014 13:40:29;Одесса, Ильфа и Петрова, 13, 113;;0968389656;г.Одесса Аптека №13 ул.Преображенская, 67;;
Цифран СТ табл.  N10 ;44750 ;Ранбакси ;53.46 ;4 ; 213.84;;;
Лекран капс. № 30 ;126443 ;Профарм ;115.50 ;3 ; 346.5;;;
Тавегил табл. 1мг N20 ;4600 ;Новартис Консьюмер ;29.35 ;2 ; 58.7;;;
Лидокаина гидрохлорид р-р д ин. 2% амп. 2мл N10 Дарница ;36214 ;Дарница ;5.74 ;2 ; 11.48;;;
Натрия хлорид 0.9% 100мл (ПВХ) ;60032 ;Фарматрейд ДП, Украина  ;4.60 ;1 ; 4.6;;;
Флагил супп.вагин. 500мг N10 ;93405 ;Авентис Фарм ;43.85 ;1 ; 43.85;;;
Флагил табл. 250мг N20 ;8076 ;Авентис Фарм ;33.06 ;2 ; 66.12;;;
Простатилена супп.0.03 N10 ;95425 ;Лекхим ;95.05 ;2 ; 190.1;;;
Дистрептаза супп. 2г N6 ;87798 ;Биомед ;113.83 ;1 ; 113.83;;;
Гепадиф капсулы N50 ;88420 ;Глобал фарм ;307.43 ;2 ; 614.86;;;
Фуцис табл. 200 мг N 4 ;59400 ;КУСУМ ХЕЛТХКЕР (Індія) ;50.90 ;4 ; 203.6;;;
Цефтриаксон пор. д приг. ин. р-ра 1г фл. N5 Дарница ;41547 ;Дарница ;37.80 ;4 ; 151.2;;;
