898;Валерий;marketing@ikwell.dp.ua;26.01.2014 12:27:44;пос.Мирный;;0985463972;г.Днепропетровск
Аптека 08, ул. Титова, 13б;;
Кардиомаг капс. 250мг N30 ;196685 ;Аптека №283 ООО ;21.59 ;1 ; 21.59;;;
Сомазина табл. п п о 500мг N10 ;136012 ;Феррер Интернасиональ ;233.35 ;1 ; 233.35;;;
