951;Чичкань Богдана Викторовна;sav077@mail.ru;17.02.2014 10:13:00;Никополь, ул. Гончара,7 кв.31;;0664593152;г.Никополь Аптека 33  пр.Трубников, 26;;
Нимесулид табл.100мг №12 ;74250 ;Фитофарм ;5.69 ;1 ; 5.69;;;
Нимесулид гель 1% 30г туба ;135988 ;Фармтехнология ;19.90 ;1 ; 19.9;;;
