952;Рихлицкая О. В.;apteka19@ikwell.dp.ua;17.02.2014 10:48:07;г.Винница;;0964526967;г.Винница Аптека 19, ул.Зодчих, 28-А;;
Протефлазид кап.фл.30мл ;82145 ;Фитофарм ;204.53 ;1 ; 204.53;;;
Фурамаг капс. 50мг N30 ;34979 ;Олайнский ХФЗ ;60.84 ;1 ; 60.84;;;
