959;Михаил Николаевич;polishko@ikwell.dp.ua;18.02.2014 13:20:40;титова;066 4819302;066 4819302;г.Днепропетровск
Аптека 08 ул.Титова, 13-Б (ОптТорг);;
Карнитин-L сироп 100мл ;73675 ;Олимп ;38.93 ;1 ; 38.93;;;
