976;Куприенко Надежда Владимировна;kuprienko-1976@mail.ua;22.02.2014 20:49:36;г.Кривой Рог ул.Симонова д.2 кв.95;;096 243 30 04;г.Кривой Рог Аптека 31 пр.К.Маркса, 11/18;;
Эглонил табл. 200мг N12 ;12582 ;Санофи-Синтелабо ;70.92 ;4 ; 283.68;;;
Галстена капли д перорал. прим. фл. 50мл ;13961 ;Биттнер ;109.04 ;1 ; 109.04;;;
Галстена капли д перорал. прим. фл. 20мл ;13960 ;Биттнер ;67.93 ;1 ; 67.93;;;
Холоплант капс. N30 ;241710 ;Профарм ;190.80 ;4 ; 763.2;;;
