27.05.2014 23:32:49/146647533   Система анализа цен и управления закупками
ЗАКАЗ ФИРМЕ БаДМ ООО тел.:39-90-45 399049 399067Евге
ТОВ «МЕНГО»  г.Харьков Аптека 03 ул.Героев Труда, 6 

Код                     Наименование                             Цена	   Кол-во	  Сумма     Изготовитель	    Текстовый код 
-------------------------------------------------------------------------------------------------------------------------- 

83407                   911 Бадяга гель д тела  п синяков и уш   17.91        1       17.91     Твинс Тэк ЗАО, Ро   83407                 

-------------------------------------------- 
Заказ на сумму 17.91 грн. 
Примечание: 
